The Value of Baker Woodlot – FOR 128
…
baker_2009 <- baker_2009 %>% 
  mutate(spp = toupper(spp)) 

baker_2009 <- left_join(baker_2009, spp_code, by = c("spp" = "Code"))

baker_2009 <- baker_2009 %>%
  mutate(Species = `Common name`)

baker_2009 <- baker_2009 %>%
  select(-c(`Crew`, `plot type`, `stem#`, `spp`, `comments`, `Latin name` ))

baker_2009

# A tibble: 261 × 5
   `plot#`   dbh `plot radius (ft)` `Common name`  Species       
   <chr>   <dbl>              <dbl> <chr>          <chr>         
 1 a1       NA                  6.8 <NA>           <NA>          
 2 a2       NA                  6.8 <NA>           <NA>          
 3 a3        2.3                6.8 American Beech American Beech
 4 a3        1.5                6.8 Sugar Maple    Sugar Maple   
 5 a4        2.9                6.8 American Beech American Beech
 6 a5       NA                  6.8 <NA>           <NA>          
 7 a6        1.7                6.8 Sugar Maple    Sugar Maple   
 8 a7       NA                  6.8 <NA>           <NA>          
 9 a8       NA                  6.8 <NA>           <NA>          
10 a9       NA                  6.8 <NA>           <NA>          
# ℹ 251 more rows

Data Loading, Summarization, and Joining

First, I load our 2024 data.

Code

baker_2024 <- read_csv("FOR-128 Baker Results - Sheet1.csv")

baker_2024

# A tibble: 468 × 7
   Plot_Number Tree_Number Collecter   DBH Total_Height Saw_Logs Species        
         <dbl>       <dbl> <chr>     <dbl>        <dbl>    <dbl> <chr>          
 1           2           1 Braeden     2.1           23      0   Sugar Maple    
 2           2           2 Braeden     3.6           31      0   Sugar Maple    
 3           2           3 Braeden     1.3           12      0   Sugar Maple    
 4           2           4 Braeden     1.8           18      0   Sugar Maple    
 5           2           5 Braeden     1             12      0   Sugar Maple    
 6           2           6 Braeden     2.9           36      0   Sugar Maple    
 7           2           7 Braeden     2.2           27      0   Sugar Maple    
 8           2           8 Braeden     2.2           29      0   Sugar Maple    
 9           2           9 Braeden     3             30      0   Sugar Maple    
10           2          10 Braeden    34.7          102      2.5 Northern Red O…
# ℹ 458 more rows
…
