Joining and Reshaping Data – FOR 128
…
Part 2: FIA Data

For this part, you’ll use four dataset from the Forest Inventory & Analysis Program (FIA). These data are available on the course website in the “data_lab9.zip” file. The plot_biomass.csv dataset contains information on the unique FIA plot ID (PLT_CN) and a measurement of aboveground biomass for each plot. The plot_locations.csv dataset contains location information for each of those same plots, along with the unique identifier (PLT_CN). Notably, plot_locations.csv has columns denoting the state and county the plot resides in. However, we don’t have the actual state and county names for each plot, just their unique code. We will have to do some data joins with the state_reference.csv and county_reference.csv datasets to find out where these plots are.

Exercise 6

Load in the four datasets included in the posting of Lab 9 on the course website. Name each of them the same as they are named as files, without the .csv extension. For example, for the “plot_biomass.csv” file, name the object plot_biomass, etc. Take a look at these datasets and try to understand them. What does a row represent in each one?

plot_biomass

# A tibble: 191 × 2
    PLT_CN DRYBIO_AG_TPA
     <dbl>         <dbl>
 1 1.75e14        122.  
 2 1.75e14         76.2 
 3 1.75e14          4.21
 4 1.75e14         13.2 
 5 1.75e14         90.9 
 6 1.75e14         96.2 
 7 1.75e14        397.  
 8 1.75e14          2.54
 9 1.75e14        290.  
10 2.17e14        182.  
# ℹ 181 more rows

plot_locations

# A tibble: 191 × 5
    PLT_CN STATECD COUNTYFIPS LON_PUBLIC LAT_PUBLIC
     <dbl>   <dbl>      <dbl>      <dbl>      <dbl>
 1 3.08e13      41      41051      -122.       45.6
 2 4.12e14      41      41009      -123.       45.9
 3 4.85e14      41      41009      -123.       45.8
 4 3.08e13      41      41009      -123.       45.8
 5 2.17e14      41      41009      -123.       46.0
 6 4.85e14      41      41009      -123.       46.1
 7 4.12e14      41      41051      -122.       45.5
 8 3.08e13      41      41009      -123.       45.8
 9 2.17e14      41      41009      -123.       45.9
10 5.59e14      41      41009      -123.       45.9
# ℹ 181 more rows

state_reference

# A tibble: 59 × 3
   state_cd state_name           state_abbr
      <dbl> <chr>                <chr>     
 1        1 Alabama              AL        
 2        2 Alaska               AK        
 3        4 Arizona              AZ        
 4        5 Arkansas             AR        
 5        6 California           CA        
 6        8 Colorado             CO        
 7        9 Connecticut          CT        
 8       10 Delaware             DE        
 9       11 District of Columbia DC        
10       12 Florida              FL        
# ℹ 49 more rows

county_reference

# A tibble: 3,233 × 3
   STATENM      COUNTYNM   COUNTYFIPS
   <chr>        <chr>      <chr>     
 1 Ohio         Highland   39071     
 2 California   Alpine     06003     
 3 Florida      Escambia   12033     
 4 Illinois     Lawrence   17101     
 5 Mississippi  Wayne      28153     
 6 Mississippi  Tishomingo 28141     
 7 Montana      Sanders    30089     
 8 New York     Albany     36001     
 9 Pennsylvania Potter     42105     
10 Missouri     Greene     29077     
# ℹ 3,223 more rows
…
Exercise 8

Now you have your plot location information and plot biomass measurements in one tibble, but we still don’t know where these plots are. Add some columns to plots by joining it with state_reference in a way such that each row of plots now has a state name and abbreviation associated with it. Use dplyr to figure out what state(s) are these plots in?

plots

# A tibble: 191 × 8
    PLT_CN DRYBIO_AG_TPA STATECD COUNTYFIPS LON_PUBLIC LAT_PUBLIC state_name
     <dbl>         <dbl>   <dbl>      <dbl>      <dbl>      <dbl> <chr>     
 1 1.75e14        122.        41      41051      -122.       45.6 Oregon    
 2 1.75e14         76.2       53      53013      -118.       46.1 Washington
 3 1.75e14          4.21      53      53013      -118.       46.2 Washington
 4 1.75e14         13.2       53      53013      -118.       46.2 Washington
 5 1.75e14         90.9       53      53013      -118.       46.1 Washington
 6 1.75e14         96.2       41      41051      -122.       45.5 Oregon    
 7 1.75e14        397.        41      41051      -122.       45.5 Oregon    
 8 1.75e14          2.54      53      53013      -118.       46.3 Washington
 9 1.75e14        290.        41      41051      -122.       45.5 Oregon    
10 2.17e14        182.        41      41051      -122.       45.6 Oregon    
# ℹ 181 more rows
# ℹ 1 more variable: state_abbr <chr>
…
Use a filtering join to see if any rows of plots do not have a match in state_reference. Are there any? If so, how many?

# A tibble: 0 × 8
# ℹ 8 variables: PLT_CN <dbl>, DRYBIO_AG_TPA <dbl>, STATECD <dbl>,
#   COUNTYFIPS <dbl>, LON_PUBLIC <dbl>, LAT_PUBLIC <dbl>, state_name <chr>,
#   state_abbr <chr>

Exercise 10

Now you’ve added biomass and state information to your plot data. Great job! We have one more dataset to join. Join the county_reference tibble to plots so you can see what county each FIA plot is in. Hint: you might get an error here. Make sure to check the column classes you are joining by and change them as needed. You should have 191 rows and 10 columns in plots after this join. What counties are these plots in?

plots

# A tibble: 191 × 10
    PLT_CN DRYBIO_AG_TPA STATECD COUNTYFIPS LON_PUBLIC LAT_PUBLIC state_name
     <dbl>         <dbl>   <dbl> <chr>           <dbl>      <dbl> <chr>     
 1 1.75e14        122.        41 41051           -122.       45.6 Oregon    
 2 1.75e14         76.2       53 53013           -118.       46.1 Washington
 3 1.75e14          4.21      53 53013           -118.       46.2 Washington
 4 1.75e14         13.2       53 53013           -118.       46.2 Washington
 5 1.75e14         90.9       53 53013           -118.       46.1 Washington
 6 1.75e14         96.2       41 41051           -122.       45.5 Oregon    
 7 1.75e14        397.        41 41051           -122.       45.5 Oregon    
 8 1.75e14          2.54      53 53013           -118.       46.3 Washington
 9 1.75e14        290.        41 41051           -122.       45.5 Oregon    
10 2.17e14        182.        41 41051           -122.       45.6 Oregon    
# ℹ 181 more rows
# ℹ 3 more variables: state_abbr <chr>, STATENM <chr>, COUNTYNM <chr>
…
