Plotting with ggplot2 – FOR 128
…
Part 2: Creating plots

Again, we’ll consider some data from the pdxTrees R package: data across a few parks (Irving Park, Sewallcrest Park, and Sellwood Riverfront Park) in Portland, Oregon.

Exercise 2

Use the pdxTrees package to get the data for all parks in Portland. Then, filter the dataset to only contain rows that correspond to Irving Park, Sewallcrest Park, and Sellwood Riverfront Park. Call the resulting tibble parks. Hint: you can either call get_pdxTrees_parks() and then use a dplyr function to filter for only the parks we are interested in, or specify the park argument of get_pdxTrees_parks() when you call the function. Your resulting tibble should have 314 rows and 34 columns.

parks

# A tibble: 314 × 34
   Longitude Latitude UserID Genus     Family    DBH Inventory_Date      Species
       <dbl>    <dbl> <chr>  <chr>     <chr>   <dbl> <dttm>              <chr>  
 1     -123.     45.5 1804   Acer      Sapind…  24.9 2017-08-12 00:00:00 ACPL   
 2     -123.     45.5 1805   Quercus   Fagace…  56.9 2017-08-12 00:00:00 QURU   
 3     -123.     45.5 1806   Quercus   Fagace…  43.8 2017-08-12 00:00:00 QURU   
 4     -123.     45.5 5462   Acer      Sapind…  24.5 2017-08-12 00:00:00 ACPL   
 5     -123.     45.5 5466   Acer      Sapind…  17.9 2017-08-12 00:00:00 ACPL   
 6     -123.     45.5 5469   Acer      Sapind…  25.9 2017-08-12 00:00:00 ACPL   
 7     -123.     45.5 5470   Quercus   Fagace…  47.9 2017-08-12 00:00:00 QURU   
 8     -123.     45.5 5471   Pinus     Pinace…  24.4 2017-08-12 00:00:00 PIPO   
 9     -123.     45.5 6011   Acer      Sapind…  31.2 2017-08-12 00:00:00 ACPL   
10     -123.     45.5 6013   Crataegus Rosace…  11   2017-08-12 00:00:00 CRMO   
# ℹ 304 more rows
# ℹ 26 more variables: Common_Name <chr>, Condition <chr>, Tree_Height <dbl>,
#   Crown_Width_NS <dbl>, Crown_Width_EW <dbl>, Crown_Base_Height <dbl>,
#   Collected_By <chr>, Park <chr>, Scientific_Name <chr>,
#   Functional_Type <chr>, Mature_Size <fct>, Native <chr>, Edible <chr>,
#   Nuisance <chr>, Structural_Value <dbl>, Carbon_Storage_lb <dbl>,
#   Carbon_Storage_value <dbl>, Carbon_Sequestration_lb <dbl>, …
…
