Final Project: Understanding the Impacts of wildfire in Michigan – FOR 128
…
county_avg_tcl

# A tibble: 83 × 2
   County  avg_loss_ha
   <chr>         <dbl>
 1 Alcona        557. 
 2 Alger         551. 
 3 Allegan       104. 
 4 Alpena        376. 
 5 Antrim        183. 
 6 Arenac        161. 
 7 Baraga        754. 
 8 Barry          38.4
 9 Bay            39.9
10 Benzie        220. 
# ℹ 73 more rows
…
# Sum the county sums to get the overall state sum.
state_sum <- sum(sums)

# Create Tibble house the proportional data
loss_proportion_data <- tibble(
  'County' = county_data$County,
  'Tree cover loss sums (ha)' = sums,
  # Perform the proportion calculation and assign it to a column
  'Proportions' = (sums / state_sum) * 100
)

loss_proportion_data

# A tibble: 83 × 3
   County  `Tree cover loss sums (ha)` Proportions
   <chr>                         <dbl>       <dbl>
 1 Alcona                        12802       1.93 
 2 Alger                         12682       1.91 
 3 Allegan                        2393       0.360
 4 Alpena                         8640       1.30 
 5 Antrim                         4218       0.634
 6 Arenac                         3707       0.558
 7 Baraga                        17347       2.61 
 8 Barry                           884       0.133
 9 Bay                             917       0.138
10 Benzie                         5066       0.762
# ℹ 73 more rows
…
# Create a condition variable to help with the upcoming mutate statement
top_five_county_name <- top_five_county_prop$County

# Add column to label which counties are in the top five list
loss_proportion_data <- loss_proportion_data %>% 
  mutate(top_five = case_when(
    County %in% c(top_five_county_name) ~ 'yes',
    !(County %in% c(top_five_county_name)) ~ 'no'
    ))

loss_proportion_data

# A tibble: 83 × 4
   County  `Tree cover loss sums (ha)` Proportions top_five
   <chr>                         <dbl>       <dbl> <chr>   
 1 Alcona                        12802       1.93  no      
 2 Alger                         12682       1.91  no      
 3 Allegan                        2393       0.360 no      
 4 Alpena                         8640       1.30  no      
 5 Antrim                         4218       0.634 no      
 6 Arenac                         3707       0.558 no      
 7 Baraga                        17347       2.61  no      
 8 Barry                           884       0.133 no      
 9 Bay                             917       0.138 no      
10 Benzie                         5066       0.762 no      
# ℹ 73 more rows
…
# Calculating and storing the county proportions for tree cover
tc_proportions <- county_data %>%
  transmute(
    County,
    Proportion_tc_2000 = (extent_2000_ha / tc_data$Total_TC_2000) * 100,
    extent_2000_ha,
    Proportion_tc_2010 = (extent_2010_ha / tc_data$Total_TC_2010) * 100,
    extent_2010_ha
  )

tc_proportions

# A tibble: 83 × 5
   County  Proportion_tc_2000 extent_2000_ha Proportion_tc_2010 extent_2010_ha
   <chr>                <dbl>          <dbl>              <dbl>          <dbl>
 1 Alcona               1.68          145427              1.71          144553
 2 Alger                2.55          220733              2.58          218275
 3 Allegan              1.04           90170              1.04           88444
 4 Alpena               1.22          105362              1.23          104616
 5 Antrim               0.940          81372              0.951          80558
 6 Arenac               0.589          50966              0.594          50310
 7 Baraga               2.52          218327              2.57          217350
 8 Barry                0.765          66156              0.749          63497
 9 Bay                  0.264          22881              0.267          22593
10 Benzie               0.717          62046              0.711          60221
# ℹ 73 more rows
…
